<?xml version="1.0" encoding="UTF-8" standalone="no"?>
<!-- Generated by SVGo -->

<svg
   xmlns:dc="http://purl.org/dc/elements/1.1/"
   xmlns:cc="http://creativecommons.org/ns#"
   xmlns:rdf="http://www.w3.org/1999/02/22-rdf-syntax-ns#"
   xmlns:svg="http://www.w3.org/2000/svg"
   xmlns="http://www.w3.org/2000/svg"
   xmlns:sodipodi="http://sodipodi.sourceforge.net/DTD/sodipodi-0.dtd"
   xmlns:inkscape="http://www.inkscape.org/namespaces/inkscape"
   width="420mm"
   height="297mm"
   viewBox="0 0 420 297"
   version="1.1"
   id="svg887"
   sodipodi:docname="basic_design-couscous-rev_2.svg"
   inkscape:version="0.92.3 (2405546, 2018-03-11)">
  <metadata
     id="metadata893">
    <rdf:RDF>
      <cc:Work
         rdf:about="">
        <dc:format>image/svg+xml</dc:format>
        <dc:type
           rdf:resource="http://purl.org/dc/dcmitype/StillImage" />
        <dc:title />
      </cc:Work>
    </rdf:RDF>
  </metadata>
  <defs
     id="defs891" />
  <sodipodi:namedview
     pagecolor="#ffffff"
     bordercolor="#666666"
     borderopacity="1"
     objecttolerance="10"
     gridtolerance="10"
     guidetolerance="10"
     inkscape:pageopacity="0"
     inkscape:pageshadow="2"
     inkscape:window-width="1920"
     inkscape:window-height="1138"
     id="namedview889"
     showgrid="false"
     inkscape:zoom="1.4142136"
     inkscape:cx="453.86895"
     inkscape:cy="837.62351"
     inkscape:window-x="1920"
     inkscape:window-y="0"
     inkscape:window-maximized="1"
     inkscape:current-layer="svg887"
     showguides="false"
     inkscape:guide-bbox="true"
     inkscape:snap-center="true"
     inkscape:snap-object-midpoints="true"
     inkscape:snap-others="true"
     inkscape:snap-bbox="true"
     inkscape:bbox-paths="false"
     inkscape:measure-start="777.817,820.951"
     inkscape:measure-end="778.525,820.244">
    <sodipodi:guide
       position="149.48385,281.19427"
       orientation="0,1"
       id="guide895"
       inkscape:locked="false"
       inkscape:label=""
       inkscape:color="rgb(255,180,0)" />
    <sodipodi:guide
       position="110.59583,168.01042"
       orientation="0,1"
       id="guide899"
       inkscape:locked="false"
       inkscape:label=""
       inkscape:color="rgb(255,182,0)" />
    <sodipodi:guide
       position="199.75264,200.00574"
       orientation="-0.8660254,0.5"
       id="guide901"
       inkscape:locked="false"
       inkscape:label=""
       inkscape:color="rgb(255,183,0)" />
    <sodipodi:guide
       position="147.37292,155.575"
       orientation="0.5,0.8660254"
       id="guide905"
       inkscape:locked="false"
       inkscape:label=""
       inkscape:color="rgb(255,178,0)" />
    <sodipodi:guide
       position="189.97151,187.61636"
       orientation="0.5,0.8660254"
       id="guide907"
       inkscape:locked="false"
       inkscape:label=""
       inkscape:color="rgb(255,181,0)" />
    <sodipodi:guide
       position="22.225,212.72501"
       orientation="1,0"
       id="guide5833"
       inkscape:locked="false"
       inkscape:label=""
       inkscape:color="rgb(255,182,0)" />
    <sodipodi:guide
       position="141.10702,198.21494"
       orientation="1,0"
       id="guide913"
       inkscape:locked="false" />
    <sodipodi:guide
       position="167.52666,144.18872"
       orientation="0,1"
       id="guide915"
       inkscape:locked="false" />
    <sodipodi:guide
       position="95.25,292.36458"
       orientation="1,0"
       id="guide1080"
       inkscape:locked="false"
       inkscape:label=""
       inkscape:color="rgb(81,151,0)" />
    <sodipodi:guide
       position="83.211459,170.19323"
       orientation="0,1"
       id="guide1100"
       inkscape:locked="false"
       inkscape:label=""
       inkscape:color="rgb(81,151,0)" />
    <sodipodi:guide
       position="24.473958,186.79583"
       orientation="1,0"
       id="guide1102"
       inkscape:locked="false"
       inkscape:label=""
       inkscape:color="rgb(81,151,0)" />
    <sodipodi:guide
       position="176.08021,278.73854"
       orientation="0,1"
       id="guide1104"
       inkscape:locked="false"
       inkscape:label=""
       inkscape:color="rgb(81,151,0)" />
    <sodipodi:guide
       position="188.2112,208.74418"
       orientation="-0.5,-0.8660254"
       id="guide1106"
       inkscape:locked="false"
       inkscape:label=""
       inkscape:color="rgb(81,151,0)" />
    <sodipodi:guide
       position="181.37188,189.83854"
       orientation="0.5,0.8660254"
       id="guide1108"
       inkscape:locked="false"
       inkscape:label=""
       inkscape:color="rgb(81,151,0)" />
    <sodipodi:guide
       position="185.86979,180.51198"
       orientation="-0.8660254,0.5"
       id="guide1110"
       inkscape:locked="false"
       inkscape:label=""
       inkscape:color="rgb(81,151,0)" />
    <sodipodi:guide
       position="177.00625,141.35365"
       orientation="-0.5,-0.8660254"
       id="guide1112"
       inkscape:locked="false"
       inkscape:label=""
       inkscape:color="rgb(81,151,0)" />
    <sodipodi:guide
       position="175.94792,225.82188"
       orientation="0,1"
       id="guide1114"
       inkscape:locked="false"
       inkscape:label=""
       inkscape:color="rgb(81,151,0)" />
    <sodipodi:guide
       position="182.11808,192.01809"
       orientation="-0.99452189,-0.10452847"
       id="guide1137"
       inkscape:locked="false"
       inkscape:label=""
       inkscape:color="rgb(255,183,0)" />
    <sodipodi:guide
       position="178.59375,204.12604"
       orientation="-0.99452189,-0.10452847"
       id="guide1169"
       inkscape:locked="false"
       inkscape:label=""
       inkscape:color="rgb(81,151,0)" />
    <sodipodi:guide
       position="31.057023,265.98394"
       orientation="0,1"
       id="guide1194"
       inkscape:locked="false" />
    <sodipodi:guide
       position="192.53881,199.71326"
       orientation="0.5,0.8660254"
       id="guide932"
       inkscape:locked="false"
       inkscape:label=""
       inkscape:color="rgb(0,148,18)" />
    <sodipodi:guide
       position="176.21702,175.00294"
       orientation="-0.8660254,0.5"
       id="guide4649"
       inkscape:locked="false"
       inkscape:label=""
       inkscape:color="rgb(255,0,230)" />
    <sodipodi:guide
       position="150.65902,200.03494"
       orientation="-0.8660254,0.5"
       id="guide4651"
       inkscape:locked="false"
       inkscape:label=""
       inkscape:color="rgb(255,0,209)" />
    <sodipodi:guide
       position="191.3491,209.50001"
       orientation="-0.5,-0.8660254"
       id="guide4668"
       inkscape:locked="false"
       inkscape:label=""
       inkscape:color="rgb(255,143,0)" />
  </sodipodi:namedview>
  <polygon
     points="137.818,118.299 149.942,125.299 150.442,124.433 151.135,124.833 152.685,122.148 151.992,121.748 154.892,116.725 155.585,117.125 157.135,114.44 156.442,114.04 156.942,113.174 144.818,106.174 144.318,107.04 143.625,106.64 142.075,109.325 142.768,109.725 139.868,114.748 139.175,114.348 137.625,117.033 138.318,117.433 "
     style="fill:none;stroke:#000000;stroke-width:0.3;stroke-miterlimit:4;stroke-dasharray:none;stroke-opacity:1"
     id="polygon817"
     transform="translate(14.007024,16.347062)" />
  <polygon
     points="121.32,108.774 133.444,115.774 133.944,114.908 134.637,115.308 136.187,112.623 135.494,112.223 138.394,107.2 139.087,107.6 140.637,104.915 139.944,104.515 140.444,103.649 128.32,96.649 127.82,97.515 127.127,97.115 125.577,99.8 126.27,100.2 123.37,105.223 122.677,104.823 121.127,107.508 121.82,107.908 "
     style="fill:none;stroke:#000000;stroke-width:0.3;stroke-miterlimit:4;stroke-dasharray:none;stroke-opacity:1"
     id="polygon819"
     transform="translate(14.007024,16.347062)" />
  <polygon
     points="147.343,101.801 159.467,108.801 159.967,107.935 160.66,108.335 162.21,105.65 161.517,105.25 164.417,100.227 165.11,100.627 166.66,97.943 165.967,97.543 166.467,96.677 154.343,89.677 153.843,90.543 153.15,90.143 151.6,92.827 152.293,93.227 149.393,98.25 148.7,97.85 147.15,100.535 147.843,100.935 "
     style="fill:none;stroke:#000000;stroke-width:0.3;stroke-miterlimit:4;stroke-dasharray:none;stroke-opacity:1"
     id="polygon821"
     transform="translate(14.007024,16.347062)" />
  <polygon
     points="17.05,103.869 17.05,104.869 31.05,104.869 31.05,103.869 31.85,103.869 31.85,100.769 31.05,100.769 31.05,94.969 31.85,94.969 31.85,91.869 31.05,91.869 31.05,90.869 17.05,90.869 17.05,91.869 16.25,91.869 16.25,94.969 17.05,94.969 17.05,100.769 16.25,100.769 16.25,103.869 "
     style="fill:none;stroke:#000000;stroke-width:0.3;stroke-miterlimit:4;stroke-dasharray:none;stroke-opacity:1"
     id="polygon823"
     transform="translate(14.007024,16.347062)" />
  <polygon
     points="36.1,103.869 36.1,104.869 50.1,104.869 50.1,103.869 50.9,103.869 50.9,100.769 50.1,100.769 50.1,94.969 50.9,94.969 50.9,91.869 50.1,91.869 50.1,90.869 36.1,90.869 36.1,91.869 35.3,91.869 35.3,94.969 36.1,94.969 36.1,100.769 35.3,100.769 35.3,103.869 "
     style="fill:none;stroke:#000000;stroke-width:0.3;stroke-miterlimit:4;stroke-dasharray:none;stroke-opacity:1"
     id="polygon825"
     transform="translate(14.007024,16.347062)" />
  <polygon
     points="97.708,101.185 111.231,104.809 111.49,103.843 112.262,104.05 113.065,101.055 112.292,100.848 113.793,95.246 114.566,95.453 115.368,92.459 114.595,92.252 114.854,91.286 101.331,87.662 101.072,88.628 100.3,88.421 99.497,91.415 100.27,91.622 98.769,97.225 97.996,97.018 97.194,100.012 97.967,100.219 "
     style="fill:none;stroke:#000000;stroke-width:0.3;stroke-miterlimit:4;stroke-dasharray:none;stroke-opacity:1"
     id="polygon827"
     transform="translate(14.007024,16.347062)" />
  <polygon
     points="55.15,99.107 55.15,100.107 69.15,100.107 69.15,99.107 69.95,99.107 69.95,96.007 69.15,96.007 69.15,90.207 69.95,90.207 69.95,87.107 69.15,87.107 69.15,86.107 55.15,86.107 55.15,87.107 54.35,87.107 54.35,90.207 55.15,90.207 55.15,96.007 54.35,96.007 54.35,99.107 "
     style="fill:none;stroke:#000000;stroke-width:0.3;stroke-miterlimit:4;stroke-dasharray:none;stroke-opacity:1"
     id="polygon829"
     transform="translate(14.007024,16.347062)" />
  <polygon
     points="130.845,92.276 142.969,99.276 143.469,98.41 144.162,98.81 145.712,96.125 145.019,95.725 147.919,90.702 148.612,91.102 150.162,88.418 149.469,88.018 149.969,87.152 137.845,80.152 137.345,81.018 136.652,80.618 135.102,83.302 135.795,83.702 132.895,88.725 132.202,88.325 130.651,91.01 131.345,91.41 "
     style="fill:none;stroke:#000000;stroke-width:0.3;stroke-miterlimit:4;stroke-dasharray:none;stroke-opacity:1"
     id="polygon831"
     transform="translate(14.007024,16.347062)" />
  <polygon
     points="74.2,96.726 74.2,97.726 88.2,97.726 88.2,96.726 89,96.726 89,93.626 88.2,93.626 88.2,87.825 89,87.825 89,84.726 88.2,84.726 88.2,83.726 74.2,83.726 74.2,84.726 73.4,84.726 73.4,87.825 74.2,87.825 74.2,93.626 73.4,93.626 73.4,96.726 "
     style="fill:none;stroke:#000000;stroke-width:0.3;stroke-miterlimit:4;stroke-dasharray:none;stroke-opacity:1"
     id="polygon833"
     transform="translate(14.007024,16.347062)" />
  <polygon
     points="17.05,84.819 17.05,85.819 31.05,85.819 31.05,84.819 31.85,84.819 31.85,81.719 31.05,81.719 31.05,75.919 31.85,75.919 31.85,72.819 31.05,72.819 31.05,71.819 17.05,71.819 17.05,72.819 16.25,72.819 16.25,75.919 17.05,75.919 17.05,81.719 16.25,81.719 16.25,84.819 "
     style="fill:none;stroke:#000000;stroke-width:0.3;stroke-miterlimit:4;stroke-dasharray:none;stroke-opacity:1"
     id="polygon835"
     transform="translate(14.007024,16.347062)" />
  <polygon
     points="36.1,84.819 36.1,85.819 50.1,85.819 50.1,84.819 50.9,84.819 50.9,81.719 50.1,81.719 50.1,75.919 50.9,75.919 50.9,72.819 50.1,72.819 50.1,71.819 36.1,71.819 36.1,72.819 35.3,72.819 35.3,75.919 36.1,75.919 36.1,81.719 35.3,81.719 35.3,84.819 "
     style="fill:none;stroke:#000000;stroke-width:0.3;stroke-miterlimit:4;stroke-dasharray:none;stroke-opacity:1"
     id="polygon837"
     transform="translate(14.007024,16.347062)" />
  <polygon
     points="112.3,82.438 112.3,83.438 126.3,83.438 126.3,82.438 127.1,82.438 127.1,79.338 126.3,79.338 126.3,73.538 127.1,73.538 127.1,70.438 126.3,70.438 126.3,69.438 112.3,69.438 112.3,70.438 111.5,70.438 111.5,73.538 112.3,73.538 112.3,79.338 111.5,79.338 111.5,82.438 "
     style="fill:none;stroke:#000000;stroke-width:0.3;stroke-miterlimit:4;stroke-dasharray:none;stroke-opacity:1"
     id="polygon839"
     transform="translate(14.007024,16.347062)" />
  <polygon
     points="55.15,80.057 55.15,81.057 69.15,81.057 69.15,80.057 69.95,80.057 69.95,76.957 69.15,76.957 69.15,71.157 69.95,71.157 69.95,68.057 69.15,68.057 69.15,67.057 55.15,67.057 55.15,68.057 54.35,68.057 54.35,71.157 55.15,71.157 55.15,76.957 54.35,76.957 54.35,80.057 "
     style="fill:none;stroke:#000000;stroke-width:0.3;stroke-miterlimit:4;stroke-dasharray:none;stroke-opacity:1"
     id="polygon841"
     transform="translate(14.007024,16.347062)" />
  <polygon
     points="93.25,80.057 93.25,81.057 107.25,81.057 107.25,80.057 108.05,80.057 108.05,76.957 107.25,76.957 107.25,71.157 108.05,71.157 108.05,68.057 107.25,68.057 107.25,67.057 93.25,67.057 93.25,68.057 92.45,68.057 92.45,71.157 93.25,71.157 93.25,76.957 92.45,76.957 92.45,80.057 "
     style="fill:none;stroke:#000000;stroke-width:0.3;stroke-miterlimit:4;stroke-dasharray:none;stroke-opacity:1"
     id="polygon843"
     transform="translate(14.007024,16.347062)" />
  <polygon
     points="74.2,77.676 74.2,78.676 88.2,78.676 88.2,77.676 89,77.676 89,74.576 88.2,74.576 88.2,68.776 89,68.776 89,65.676 88.2,65.676 88.2,64.676 74.2,64.676 74.2,65.676 73.4,65.676 73.4,68.776 74.2,68.776 74.2,74.576 73.4,74.576 73.4,77.676 "
     style="fill:none;stroke:#000000;stroke-width:0.3;stroke-miterlimit:4;stroke-dasharray:none;stroke-opacity:1"
     id="polygon845"
     transform="translate(14.007024,16.347062)" />
  <polygon
     points="17.05,65.769 17.05,66.769 31.05,66.769 31.05,65.769 31.85,65.769 31.85,62.669 31.05,62.669 31.05,56.869 31.85,56.869 31.85,53.769 31.05,53.769 31.05,52.769 17.05,52.769 17.05,53.769 16.25,53.769 16.25,56.869 17.05,56.869 17.05,62.669 16.25,62.669 16.25,65.769 "
     style="fill:none;stroke:#000000;stroke-width:0.3;stroke-miterlimit:4;stroke-dasharray:none;stroke-opacity:1"
     id="polygon847"
     transform="translate(14.007024,16.347062)" />
  <polygon
     points="36.1,65.769 36.1,66.769 50.1,66.769 50.1,65.769 50.9,65.769 50.9,62.669 50.1,62.669 50.1,56.869 50.9,56.869 50.9,53.769 50.1,53.769 50.1,52.769 36.1,52.769 36.1,53.769 35.3,53.769 35.3,56.869 36.1,56.869 36.1,62.669 35.3,62.669 35.3,65.769 "
     style="fill:none;stroke:#000000;stroke-width:0.3;stroke-miterlimit:4;stroke-dasharray:none;stroke-opacity:1"
     id="polygon849"
     transform="translate(14.007024,16.347062)" />
  <polygon
     points="112.3,63.388 112.3,64.388 126.3,64.388 126.3,63.388 127.1,63.388 127.1,60.288 126.3,60.288 126.3,54.488 127.1,54.488 127.1,51.388 126.3,51.388 126.3,50.388 112.3,50.388 112.3,51.388 111.5,51.388 111.5,54.488 112.3,54.488 112.3,60.288 111.5,60.288 111.5,63.388 "
     style="fill:none;stroke:#000000;stroke-width:0.3;stroke-miterlimit:4;stroke-dasharray:none;stroke-opacity:1"
     id="polygon851"
     transform="translate(14.007024,16.347062)" />
  <polygon
     points="55.15,61.007 55.15,62.007 69.15,62.007 69.15,61.007 69.95,61.007 69.95,57.907 69.15,57.907 69.15,52.107 69.95,52.107 69.95,49.007 69.15,49.007 69.15,48.007 55.15,48.007 55.15,49.007 54.35,49.007 54.35,52.107 55.15,52.107 55.15,57.907 54.35,57.907 54.35,61.007 "
     style="fill:none;stroke:#000000;stroke-width:0.3;stroke-miterlimit:4;stroke-dasharray:none;stroke-opacity:1"
     id="polygon853"
     transform="translate(14.007024,16.347062)" />
  <polygon
     points="93.25,61.007 93.25,62.007 107.25,62.007 107.25,61.007 108.05,61.007 108.05,57.907 107.25,57.907 107.25,52.107 108.05,52.107 108.05,49.007 107.25,49.007 107.25,48.007 93.25,48.007 93.25,49.007 92.45,49.007 92.45,52.107 93.25,52.107 93.25,57.907 92.45,57.907 92.45,61.007 "
     style="fill:none;stroke:#000000;stroke-width:0.3;stroke-miterlimit:4;stroke-dasharray:none;stroke-opacity:1"
     id="polygon855"
     transform="translate(14.007024,16.347062)" />
  <polygon
     points="74.2,58.626 74.2,59.626 88.2,59.626 88.2,58.626 89,58.626 89,55.526 88.2,55.526 88.2,49.726 89,49.726 89,46.626 88.2,46.626 88.2,45.626 74.2,45.626 74.2,46.626 73.4,46.626 73.4,49.726 74.2,49.726 74.2,55.526 73.4,55.526 73.4,58.626 "
     style="fill:none;stroke:#000000;stroke-width:0.3;stroke-miterlimit:4;stroke-dasharray:none;stroke-opacity:1"
     id="polygon857"
     transform="translate(14.007024,16.347062)" />
  <polygon
     points="136.112,53.863 136.112,54.863 150.112,54.863 150.112,53.863 150.912,53.863 150.912,50.763 150.112,50.763 150.112,44.963 150.912,44.963 150.912,41.863 150.112,41.863 150.112,40.863 136.112,40.863 136.112,41.863 135.312,41.863 135.312,44.963 136.112,44.963 136.112,50.763 135.312,50.763 135.312,53.863 "
     style="fill:none;stroke:#000000;stroke-width:0.3;stroke-miterlimit:4;stroke-dasharray:none;stroke-opacity:1"
     id="polygon859"
     transform="translate(14.007024,16.347062)" />
  <polygon
     points="17.05,46.719 17.05,47.719 31.05,47.719 31.05,46.719 31.85,46.719 31.85,43.619 31.05,43.619 31.05,37.819 31.85,37.819 31.85,34.719 31.05,34.719 31.05,33.719 17.05,33.719 17.05,34.719 16.25,34.719 16.25,37.819 17.05,37.819 17.05,43.619 16.25,43.619 16.25,46.719 "
     style="fill:none;stroke:#000000;stroke-width:0.3;stroke-miterlimit:4;stroke-dasharray:none;stroke-opacity:1"
     id="polygon861"
     transform="translate(14.007024,16.347062)" />
  <polygon
     points="36.1,46.719 36.1,47.719 50.1,47.719 50.1,46.719 50.9,46.719 50.9,43.619 50.1,43.619 50.1,37.819 50.9,37.819 50.9,34.719 50.1,34.719 50.1,33.719 36.1,33.719 36.1,34.719 35.3,34.719 35.3,37.819 36.1,37.819 36.1,43.619 35.3,43.619 35.3,46.719 "
     style="fill:none;stroke:#000000;stroke-width:0.3;stroke-miterlimit:4;stroke-dasharray:none;stroke-opacity:1"
     id="polygon863"
     transform="translate(14.007024,16.347062)" />
  <polygon
     points="112.3,44.338 112.3,45.338 126.3,45.338 126.3,44.338 127.1,44.338 127.1,41.238 126.3,41.238 126.3,35.438 127.1,35.438 127.1,32.338 126.3,32.338 126.3,31.338 112.3,31.338 112.3,32.338 111.5,32.338 111.5,35.438 112.3,35.438 112.3,41.238 111.5,41.238 111.5,44.338 "
     style="fill:none;stroke:#000000;stroke-width:0.3;stroke-miterlimit:4;stroke-dasharray:none;stroke-opacity:1"
     id="polygon865"
     transform="translate(14.007024,16.347062)" />
  <polygon
     points="55.15,41.957 55.15,42.957 69.15,42.957 69.15,41.957 69.95,41.957 69.95,38.857 69.15,38.857 69.15,33.057 69.95,33.057 69.95,29.957 69.15,29.957 69.15,28.957 55.15,28.957 55.15,29.957 54.35,29.957 54.35,33.057 55.15,33.057 55.15,38.857 54.35,38.857 54.35,41.957 "
     style="fill:none;stroke:#000000;stroke-width:0.3;stroke-miterlimit:4;stroke-dasharray:none;stroke-opacity:1"
     id="polygon867"
     transform="translate(14.007024,16.347062)" />
  <polygon
     points="93.25,41.957 93.25,42.957 107.25,42.957 107.25,41.957 108.05,41.957 108.05,38.857 107.25,38.857 107.25,33.057 108.05,33.057 108.05,29.957 107.25,29.957 107.25,28.957 93.25,28.957 93.25,29.957 92.45,29.957 92.45,33.057 93.25,33.057 93.25,38.857 92.45,38.857 92.45,41.957 "
     style="fill:none;stroke:#000000;stroke-width:0.3;stroke-miterlimit:4;stroke-dasharray:none;stroke-opacity:1"
     id="polygon869"
     transform="translate(14.007024,16.347062)" />
  <polygon
     points="74.2,39.576 74.2,40.576 88.2,40.576 88.2,39.576 89,39.576 89,36.476 88.2,36.476 88.2,30.676 89,30.676 89,27.576 88.2,27.576 88.2,26.576 74.2,26.576 74.2,27.576 73.4,27.576 73.4,30.676 74.2,30.676 74.2,36.476 73.4,36.476 73.4,39.576 "
     style="fill:none;stroke:#000000;stroke-width:0.3;stroke-miterlimit:4;stroke-dasharray:none;stroke-opacity:1"
     id="polygon871"
     transform="translate(14.007024,16.347062)" />
  <polygon
     points="136.112,34.813 136.112,35.813 150.112,35.813 150.112,34.813 150.912,34.813 150.912,31.713 150.112,31.713 150.112,25.913 150.912,25.913 150.912,22.813 150.112,22.813 150.112,21.813 136.112,21.813 136.112,22.813 135.312,22.813 135.312,25.913 136.112,25.913 136.112,31.713 135.312,31.713 135.312,34.813 "
     style="fill:none;stroke:#000000;stroke-width:0.3;stroke-miterlimit:4;stroke-dasharray:none;stroke-opacity:1"
     id="polygon873"
     transform="translate(14.007024,16.347062)" />
  <polygon
     points="17.05,27.669 17.05,28.669 31.05,28.669 31.05,27.669 31.85,27.669 31.85,24.569 31.05,24.569 31.05,18.769 31.85,18.769 31.85,15.669 31.05,15.669 31.05,14.669 17.05,14.669 17.05,15.669 16.25,15.669 16.25,18.769 17.05,18.769 17.05,24.569 16.25,24.569 16.25,27.669 "
     style="fill:none;stroke:#000000;stroke-width:0.3;stroke-miterlimit:4;stroke-dasharray:none;stroke-opacity:1"
     id="polygon875"
     transform="translate(14.007024,16.347062)" />
  <polygon
     points="36.1,27.669 36.1,28.669 50.1,28.669 50.1,27.669 50.9,27.669 50.9,24.569 50.1,24.569 50.1,18.769 50.9,18.769 50.9,15.669 50.1,15.669 50.1,14.669 36.1,14.669 36.1,15.669 35.3,15.669 35.3,18.769 36.1,18.769 36.1,24.569 35.3,24.569 35.3,27.669 "
     style="fill:none;stroke:#000000;stroke-width:0.3;stroke-miterlimit:4;stroke-dasharray:none;stroke-opacity:1"
     id="polygon877"
     transform="translate(14.007024,16.347062)" />
  <polygon
     points="112.3,25.288 112.3,26.288 126.3,26.288 126.3,25.288 127.1,25.288 127.1,22.188 126.3,22.188 126.3,16.388 127.1,16.388 127.1,13.288 126.3,13.288 126.3,12.288 112.3,12.288 112.3,13.288 111.5,13.288 111.5,16.388 112.3,16.388 112.3,22.188 111.5,22.188 111.5,25.288 "
     style="fill:none;stroke:#000000;stroke-width:0.3;stroke-miterlimit:4;stroke-dasharray:none;stroke-opacity:1"
     id="polygon879"
     transform="translate(14.007024,16.347062)" />
  <polygon
     points="55.15,22.907 55.15,23.907 69.15,23.907 69.15,22.907 69.95,22.907 69.95,19.807 69.15,19.807 69.15,14.007 69.95,14.007 69.95,10.907 69.15,10.907 69.15,9.907 55.15,9.907 55.15,10.907 54.35,10.907 54.35,14.007 55.15,14.007 55.15,19.807 54.35,19.807 54.35,22.907 "
     style="fill:none;stroke:#000000;stroke-width:0.3;stroke-miterlimit:4;stroke-dasharray:none;stroke-opacity:1"
     id="polygon881"
     transform="translate(14.007024,16.347062)" />
  <polygon
     points="93.25,22.907 93.25,23.907 107.25,23.907 107.25,22.907 108.05,22.907 108.05,19.807 107.25,19.807 107.25,14.007 108.05,14.007 108.05,10.907 107.25,10.907 107.25,9.907 93.25,9.907 93.25,10.907 92.45,10.907 92.45,14.007 93.25,14.007 93.25,19.807 92.45,19.807 92.45,22.907 "
     style="fill:none;stroke:#000000;stroke-width:0.3;stroke-miterlimit:4;stroke-dasharray:none;stroke-opacity:1"
     id="polygon883"
     transform="translate(14.007024,16.347062)" />
  <polygon
     points="74.2,20.526 74.2,21.526 88.2,21.526 88.2,20.526 89,20.526 89,17.426 88.2,17.426 88.2,11.626 89,11.626 89,8.526 88.2,8.526 88.2,7.526 74.2,7.526 74.2,8.526 73.4,8.526 73.4,11.626 74.2,11.626 74.2,17.426 73.4,17.426 73.4,20.526 "
     style="fill:none;stroke:#000000;stroke-width:0.3;stroke-miterlimit:4;stroke-dasharray:none;stroke-opacity:1"
     id="polygon885"
     transform="translate(14.007024,16.347062)" />
  <rect
     style="fill:#faba00;fill-opacity:1;stroke:#000000;stroke-width:0.2;stroke-linecap:round;stroke-linejoin:round;stroke-miterlimit:4;stroke-dasharray:none;stroke-dashoffset:0;stroke-opacity:1"
     id="rect909-2"
     width="7.8807201"
     height="7.8807197"
     x="-211.36005"
     y="88.511612"
     transform="rotate(-150)" />
  <path
     style="fill:none;fill-rule:evenodd;stroke:#000000;stroke-width:0.30000001;stroke-linecap:butt;stroke-linejoin:miter;stroke-miterlimit:4;stroke-dasharray:none;stroke-opacity:1"
     d="m 22.225,15.992351 h 150.57474 l 6.76587,64.704439 22.19728,12.815608 C 195.32363,104.6655 174.95732,139.941 167.41863,152.9984 c -5.76222,-3.32682 -19.60833,-11.44767 -27.36778,-15.99274 -7.06578,-4.13876 -8.04511,-4.70239 -13.59891,-7.90888 h -16.64986 c -29.432302,1e-5 -87.57708,0 -87.57708,0 z"
     id="path992"
     inkscape:connector-curvature="0"
     sodipodi:nodetypes="cccccscscc" />
  <rect
     style="fill:#fa0200;fill-opacity:1;stroke:#000000;stroke-width:0.2;stroke-linecap:round;stroke-linejoin:round;stroke-miterlimit:4;stroke-dasharray:none;stroke-dashoffset:0;stroke-opacity:1"
     id="rect909-7"
     width="7.8807201"
     height="7.8807197"
     x="221.54575"
     y="4.5782933" />
  <rect
     style="fill:#fa0200;fill-opacity:1;stroke:#000000;stroke-width:0.2;stroke-linecap:round;stroke-linejoin:round;stroke-miterlimit:4;stroke-dasharray:none;stroke-dashoffset:0;stroke-opacity:1"
     id="rect1060"
     width="1.9168757"
     height="1.9168757"
     x="236.59451"
     y="9.1379738" />
  <rect
     style="fill:#fa0200;fill-opacity:1;stroke:#000000;stroke-width:0.2;stroke-linecap:round;stroke-linejoin:round;stroke-miterlimit:4;stroke-dasharray:none;stroke-dashoffset:0;stroke-opacity:1"
     id="rect1060-0-8-7"
     width="1.9168757"
     height="1.9168757"
     x="98.063095"
     y="216.16968"
     transform="rotate(-60)" />
  <flowRoot
     xml:space="preserve"
     id="flowRoot917"
     style="fill:black;stroke:none;stroke-opacity:1;stroke-width:1px;stroke-linejoin:miter;stroke-linecap:butt;fill-opacity:1;font-family:sans-serif;font-style:normal;font-weight:normal;font-size:40px;line-height:125%;letter-spacing:0px;word-spacing:0px"><flowRegion
       id="flowRegion919"><rect
         id="rect921"
         width="178"
         height="91"
         x="734"
         y="229.51968" /></flowRegion><flowPara
       id="flowPara923" /></flowRoot>  <text
     xml:space="preserve"
     style="font-style:normal;font-weight:normal;font-size:10.58333302px;line-height:125%;font-family:sans-serif;letter-spacing:0px;word-spacing:0px;fill:#000000;fill-opacity:1;stroke:none;stroke-width:0.26458332px;stroke-linecap:butt;stroke-linejoin:miter;stroke-opacity:1"
     x="220.92024"
     y="41.651829"
     id="text927"><tspan
       sodipodi:role="line"
       id="tspan925"
       x="220.92024"
       y="41.651829"
       style="stroke-width:0.26458332px">Plate: 4mm thick</tspan></text>
  <circle
     style="fill:none;fill-opacity:1;stroke:#000000;stroke-width:0.3;stroke-linecap:round;stroke-linejoin:round;stroke-miterlimit:4;stroke-dasharray:none;stroke-dashoffset:0;stroke-opacity:1"
     id="path944"
     cx="168.85938"
     cy="19.932711"
     r="1.5" />
  <circle
     style="fill:none;fill-opacity:1;stroke:#000000;stroke-width:0.30000001;stroke-linecap:round;stroke-linejoin:round;stroke-miterlimit:4;stroke-dasharray:none;stroke-dashoffset:0;stroke-opacity:1"
     id="path944-1"
     cx="26.112907"
     cy="19.946411"
     r="1.4999999" />
  <circle
     style="fill:none;fill-opacity:1;stroke:#000000;stroke-width:0.3;stroke-linecap:round;stroke-linejoin:round;stroke-miterlimit:4;stroke-dasharray:none;stroke-dashoffset:0;stroke-opacity:1"
     id="path944-1-0"
     cx="26.165354"
     cy="125.04922"
     r="1.4999999" />
  <rect
     style="fill:#fa0200;fill-opacity:1;stroke:#160027;stroke-width:0.3;stroke-linecap:round;stroke-linejoin:round;stroke-miterlimit:4;stroke-dasharray:none;stroke-dashoffset:0;stroke-opacity:1"
     id="rect909-7-3-1-32"
     width="7.8807201"
     height="7.8807197"
     x="276.45654"
     y="11.86537" />
  <circle
     style="fill:none;fill-opacity:1;stroke:#160027;stroke-width:0.3;stroke-linecap:round;stroke-linejoin:round;stroke-miterlimit:4;stroke-dasharray:none;stroke-dashoffset:0;stroke-opacity:1"
     id="path944-1-1"
     cx="280.39688"
     cy="15.805723"
     r="1.4999999" />
  <rect
     style="fill:#faba00;fill-opacity:1;stroke:#000000;stroke-width:0.2;stroke-linecap:round;stroke-linejoin:round;stroke-miterlimit:4;stroke-dasharray:none;stroke-dashoffset:0;stroke-opacity:1"
     id="rect909-2-7"
     width="7.8807201"
     height="7.8807197"
     x="-235.8107"
     y="118.80098"
     transform="rotate(-150)" />
  <circle
     style="fill:none;fill-opacity:1;stroke:#000000;stroke-width:0.30003752;stroke-linecap:round;stroke-linejoin:round;stroke-miterlimit:4;stroke-dasharray:none;stroke-dashoffset:0;stroke-opacity:1"
     id="path944-1-1-4-5"
     cx="186.54964"
     cy="111.98181"
     r="1.4999999" />
  <circle
     style="fill:none;fill-opacity:1;stroke:#000000;stroke-width:0.3;stroke-linecap:round;stroke-linejoin:round;stroke-miterlimit:4;stroke-dasharray:none;stroke-dashoffset:0;stroke-opacity:1"
     id="path944-1-1-4-3"
     cx="166.08438"
     cy="147.42863"
     r="1.4999999" />
  <circle
     style="fill:none;fill-opacity:1;stroke:#000000;stroke-width:0.30000001;stroke-linecap:round;stroke-linejoin:round;stroke-miterlimit:4;stroke-dasharray:none;stroke-dashoffset:0;stroke-opacity:1"
     id="path944-1-1-4-4"
     cx="196.38026"
     cy="94.954666"
     r="1.4999999" />
  <circle
     style="fill:none;fill-opacity:1;stroke:#000000;stroke-width:0.3;stroke-linecap:round;stroke-linejoin:round;stroke-miterlimit:4;stroke-dasharray:none;stroke-dashoffset:0;stroke-opacity:1"
     id="path944-1-1-9"
     cx="95.207024"
     cy="19.965778"
     r="1.4999999" />
  <circle
     style="fill:none;fill-opacity:1;stroke:#000000;stroke-width:0.30000001;stroke-linecap:round;stroke-linejoin:round;stroke-miterlimit:4;stroke-dasharray:none;stroke-dashoffset:0;stroke-opacity:1"
     id="path944-1-1-2"
     cx="26.297646"
     cy="72.846588"
     r="1.4999999" />
  <circle
     style="fill:none;fill-opacity:1;stroke:#000000;stroke-width:0.3;stroke-linecap:round;stroke-linejoin:round;stroke-miterlimit:4;stroke-dasharray:none;stroke-dashoffset:0;stroke-opacity:1"
     id="path944-1-1-9-6"
     cx="95.207024"
     cy="125.15311"
     r="1.4999999" />
  <circle
     style="fill:none;fill-opacity:1;stroke:#000000;stroke-width:0.30000001;stroke-linecap:round;stroke-linejoin:round;stroke-miterlimit:4;stroke-dasharray:none;stroke-dashoffset:0;stroke-opacity:1"
     id="path944-6"
     cx="174.82066"
     cy="72.859367"
     r="1.4999999" />
  <rect
     style="fill:#a9a9a9;fill-opacity:0.92139737;stroke:#000000;stroke-width:0.06948183;stroke-linecap:round;stroke-linejoin:round;stroke-miterlimit:4;stroke-dasharray:none;stroke-dashoffset:0;stroke-opacity:1"
     id="rect4647"
     width="37.930519"
     height="11.930518"
     x="220.25388"
     y="-69.680679"
     transform="rotate(30)" />
  <rect
     style="fill:#0cfa00;fill-opacity:1;stroke:#000000;stroke-width:0.13979329;stroke-linecap:round;stroke-linejoin:round;stroke-miterlimit:4;stroke-dasharray:none;stroke-dashoffset:0;stroke-opacity:1"
     id="rect909-7-9"
     width="7.8602066"
     height="3.8602068"
     x="237.48122"
     y="-122.89138"
     transform="rotate(30)" />
</svg>
